<?xml version="1.0" encoding="UTF-8" standalone="no"?>
<svg
   xmlns:dc="http://purl.org/dc/elements/1.1/"
   xmlns:cc="http://creativecommons.org/ns#"
   xmlns:rdf="http://www.w3.org/1999/02/22-rdf-syntax-ns#"
   xmlns:svg="http://www.w3.org/2000/svg"
   xmlns="http://www.w3.org/2000/svg"
   xmlns:xlink="http://www.w3.org/1999/xlink"
   xmlns:sodipodi="http://sodipodi.sourceforge.net/DTD/sodipodi-0.dtd"
   xmlns:inkscape="http://www.inkscape.org/namespaces/inkscape"
   width="210mm"
   height="297mm"
   viewBox="0 0 210 297"
   version="1.1"
   id="svg8"
   inkscape:version="1.0.1 (3bc2e813f5, 2020-09-07)"
   sodipodi:docname="ligand.svg">
  <defs
     id="defs2">
    <marker
       style="overflow:visible;"
       id="marker1805"
       refX="0.0"
       refY="0.0"
       orient="auto"
       inkscape:stockid="Arrow1Lend"
       inkscape:isstock="true">
      <path
         transform="scale(0.8) rotate(180) translate(12.5,0)"
         style="fill-rule:evenodd;stroke:#000000;stroke-width:1pt;stroke-opacity:1;fill:#000000;fill-opacity:1"
         d="M 0.0,0.0 L 5.0,-5.0 L -12.5,0.0 L 5.0,5.0 L 0.0,0.0 z "
         id="path1803" />
    </marker>
    <marker
       style="overflow:visible"
       id="Arrow1Lstart"
       refX="0.0"
       refY="0.0"
       orient="auto"
       inkscape:stockid="Arrow1Lstart"
       inkscape:isstock="true">
      <path
         transform="scale(0.8) translate(12.5,0)"
         style="fill-rule:evenodd;stroke:#000000;stroke-width:1pt;stroke-opacity:1;fill:#000000;fill-opacity:1"
         d="M 0.0,0.0 L 5.0,-5.0 L -12.5,0.0 L 5.0,5.0 L 0.0,0.0 z "
         id="path1867" />
    </marker>
    <marker
       style="overflow:visible;"
       id="Arrow1Lend"
       refX="0.0"
       refY="0.0"
       orient="auto"
       inkscape:stockid="Arrow1Lend"
       inkscape:isstock="true"
       inkscape:collect="always">
      <path
         transform="scale(0.8) rotate(180) translate(12.5,0)"
         style="fill-rule:evenodd;stroke:#000000;stroke-width:1pt;stroke-opacity:1;fill:#000000;fill-opacity:1"
         d="M 0.0,0.0 L 5.0,-5.0 L -12.5,0.0 L 5.0,5.0 L 0.0,0.0 z "
         id="path1870" />
    </marker>
    <linearGradient
       inkscape:collect="always"
       xlink:href="#linearGradient904"
       id="linearGradient906"
       x1="-20.027269"
       y1="357.20691"
       x2="36.567055"
       y2="357.20691"
       gradientUnits="userSpaceOnUse"
       gradientTransform="matrix(1.0058073,0,0,0.44809327,1.801306,193.37776)" />
    <linearGradient
       inkscape:collect="always"
       id="linearGradient904">
      <stop
         style="stop-color:#ffffff;stop-opacity:1;"
         offset="0"
         id="stop900" />
      <stop
         style="stop-color:#ffffff;stop-opacity:0;"
         offset="1"
         id="stop902" />
    </linearGradient>
    <linearGradient
       inkscape:collect="always"
       xlink:href="#linearGradient904"
       id="linearGradient906-5"
       x1="-20.027269"
       y1="357.20691"
       x2="36.567055"
       y2="357.20691"
       gradientUnits="userSpaceOnUse"
       gradientTransform="matrix(1.3953394,0,0,1.8363374,-1.2680592,-287.53358)" />
    <g
       id="g2228">
      <symbol
         overflow="visible"
         id="symbol27">
        <path
           style="stroke:none;"
           d=""
           id="path9250" />
      </symbol>
      <symbol
         overflow="visible"
         id="symbol880">
        <path
           style="stroke:none;"
           d="M 2.3125 -6.671875 C 2.21875 -6.796875 2.21875 -6.8125 2.03125 -6.8125 L 0.328125 -6.8125 L 0.328125 -6.5 L 0.625 -6.5 C 0.765625 -6.5 0.96875 -6.484375 1.109375 -6.484375 C 1.34375 -6.453125 1.359375 -6.4375 1.359375 -6.25 L 1.359375 -1.046875 C 1.359375 -0.78125 1.359375 -0.3125 0.328125 -0.3125 L 0.328125 0 C 0.671875 -0.015625 1.171875 -0.03125 1.5 -0.03125 C 1.828125 -0.03125 2.3125 -0.015625 2.65625 0 L 2.65625 -0.3125 C 1.640625 -0.3125 1.640625 -0.78125 1.640625 -1.046875 L 1.640625 -6.234375 C 1.6875 -6.1875 1.6875 -6.171875 1.734375 -6.109375 L 5.796875 -0.125 C 5.890625 -0.015625 5.90625 0 5.96875 0 C 6.109375 0 6.109375 -0.0625 6.109375 -0.265625 L 6.109375 -5.765625 C 6.109375 -6.03125 6.109375 -6.5 7.140625 -6.5 L 7.140625 -6.8125 C 6.78125 -6.796875 6.296875 -6.78125 5.96875 -6.78125 C 5.640625 -6.78125 5.15625 -6.796875 4.8125 -6.8125 L 4.8125 -6.5 C 5.828125 -6.5 5.828125 -6.03125 5.828125 -5.765625 L 5.828125 -1.5 Z M 2.3125 -6.671875 "
           id="path1670" />
      </symbol>
      <symbol
         overflow="visible"
         id="symbol5228">
        <path
           style="stroke:none;"
           d=""
           id="path1791" />
      </symbol>
      <symbol
         overflow="visible"
         id="symbol5814">
        <path
           style="stroke:none;"
           d="M 3.515625 -1.265625 L 3.28125 -1.265625 C 3.265625 -1.109375 3.1875 -0.703125 3.09375 -0.640625 C 3.046875 -0.59375 2.515625 -0.59375 2.40625 -0.59375 L 1.125 -0.59375 C 1.859375 -1.234375 2.109375 -1.4375 2.515625 -1.765625 C 3.03125 -2.171875 3.515625 -2.609375 3.515625 -3.265625 C 3.515625 -4.109375 2.78125 -4.625 1.890625 -4.625 C 1.03125 -4.625 0.4375 -4.015625 0.4375 -3.375 C 0.4375 -3.03125 0.734375 -2.984375 0.8125 -2.984375 C 0.96875 -2.984375 1.171875 -3.109375 1.171875 -3.359375 C 1.171875 -3.484375 1.125 -3.734375 0.765625 -3.734375 C 0.984375 -4.21875 1.453125 -4.375 1.78125 -4.375 C 2.484375 -4.375 2.84375 -3.828125 2.84375 -3.265625 C 2.84375 -2.65625 2.40625 -2.1875 2.1875 -1.9375 L 0.515625 -0.265625 C 0.4375 -0.203125 0.4375 -0.1875 0.4375 0 L 3.3125 0 Z M 3.515625 -1.265625 "
           id="path9511" />
      </symbol>
    </g>
  </defs>
  <sodipodi:namedview
     id="base"
     pagecolor="#ffffff"
     bordercolor="#666666"
     borderopacity="1.0"
     inkscape:pageopacity="0.0"
     inkscape:pageshadow="2"
     inkscape:zoom="2.4857953"
     inkscape:cx="1219.0305"
     inkscape:cy="625.8654"
     inkscape:document-units="mm"
     inkscape:current-layer="g1804"
     inkscape:document-rotation="0"
     showgrid="false"
     inkscape:window-width="2486"
     inkscape:window-height="1326"
     inkscape:window-x="32"
     inkscape:window-y="72"
     inkscape:window-maximized="1" />
  <metadata
     id="metadata5">
    <rdf:RDF>
      <cc:Work
         rdf:about="">
        <dc:format>image/svg+xml</dc:format>
        <dc:type
           rdf:resource="http://purl.org/dc/dcmitype/StillImage" />
        <dc:title />
      </cc:Work>
    </rdf:RDF>
  </metadata>
  <g
     inkscape:label="Layer 1"
     inkscape:groupmode="layer"
     id="layer1">
    <path
       id="rect833"
       style="fill:#ffffff;stroke:#000000;stroke-width:2.66667;stroke-miterlimit:4;stroke-dasharray:none;stop-color:#000000"
       d="m 180.70117,370.26953 v 310.87109 h 53.78321 v -95.82617 l 457.75976,65.98828 v 30.33008 h 17.27734 v -27.83789 l 3.18946,0.45899 0.008,-0.0566 a 56.542004,58.220175 0 0 0 7.61914,0.53125 56.542004,58.220175 0 0 0 47.85742,-27.2168 l 19.71289,3.16601 13.66016,59.37305 h 48.75976 l -22.72656,-98.7832 -52.29883,-8.40235 A 56.542004,58.220175 0 0 0 723.88086,538.4043 L 295.96289,476.71875 v -27.77734 h -20.60742 v 24.80664 l -40.87109,-5.89258 v -97.58594 z"
       transform="scale(0.26458333)" />
    <path
       style="fill:none;stroke:#000000;stroke-width:0.705556;stroke-linecap:butt;stroke-linejoin:miter;stroke-miterlimit:4;stroke-dasharray:none;stroke-opacity:1"
       d="m 62.040658,123.78676 c 0.150199,3.88901 0.124468,7.45316 -0.106433,10.51942 l 143.211765,19.85666"
       id="path862"
       sodipodi:nodetypes="ccc" />
    <path
       style="fill:none;stroke:#000000;stroke-width:0.705556;stroke-linecap:butt;stroke-linejoin:miter;stroke-miterlimit:4;stroke-dasharray:none;stroke-opacity:1"
       d="m 62.040658,154.86444 -0.123902,-9.61508"
       id="path864" />
    <path
       style="fill:none;stroke:#000000;stroke-width:0.705556;stroke-linecap:butt;stroke-linejoin:miter;stroke-miterlimit:4;stroke-dasharray:none;stroke-opacity:1"
       d="M 203.21014,165.98523 61.916756,145.24936"
       id="path866" />
    <path
       id="path883"
       style="fill:#ffffff;stroke:#000000;stroke-width:0.705556;stroke-miterlimit:4;stroke-dasharray:none;stop-color:#000000"
       d="m 217.86037,177.20711 a 11.934159,11.934159 0 0 0 -11.8494,11.30577 h -0.0191 v 70.09753 h 0.0429 a 11.934159,11.934159 0 0 0 11.93054,11.65408 11.934159,11.934159 0 0 0 11.93416,-11.93417 11.934159,11.934159 0 0 0 -0.0346,-0.90279 v -61.68254 l 20.19722,-5.58932 -1.16737,-4.21886 -19.02985,5.26634 v -2.69027 h -0.0191 a 11.934159,11.934159 0 0 0 -11.9171,-11.30577 11.934159,11.934159 0 0 0 -0.0682,0 z" />
    <g
       id="g1804"
       transform="matrix(3.7758006,0,0,3.7758006,-543.44759,-518.68155)"
       style="stroke-width:0.186862;stroke-miterlimit:4;stroke-dasharray:none">
      <g
         transform="matrix(0.26458333,0,0,0.26458333,148.59729,183.48411)"
         id="g30"
         style="display:inline;stroke-width:0.706252;stroke-miterlimit:4;stroke-dasharray:none">
        <path
           id="path1806"
           style="fill:#ffffff;stroke:#000000;stroke-width:2.66667;stroke-miterlimit:4;stroke-dasharray:none;stop-color:#000000"
           d="m 209.85352,605.48828 a 50.994712,50.994712 0 0 0 -50.75782,50.99414 50.994712,50.994712 0 0 0 0.0293,1.67774 v 172.09961 c 0,0 -92.505859,28.69651 -92.505859,129.13281 0,71.74022 57.392219,129.13282 143.480469,129.13282 86.08825,0 143.48047,-57.3926 143.48047,-129.13282 0,-100.4363 -92.50781,-129.13281 -92.50781,-129.13281 V 658.08398 h -0.0117 a 50.994712,50.994712 0 0 0 0.0254,-1.60156 50.994712,50.994712 0 0 0 -50.99414,-50.99414 50.994712,50.994712 0 0 0 -0.23828,0 z"
           transform="matrix(0.2648445,0,0,0.2648445,-17.643545,-174.28973)" />
        <path
           id="shape1-6"
           style="display:inline;fill:#b3b3b3;fill-opacity:1;stroke-width:0.706252;stroke-miterlimit:4;stroke-dasharray:none"
           d="M 11.849609,313.45117 C 14.550992,329.72485 28.894384,342 49.380859,342 c 20.486368,0 34.827806,-12.27528 37.529297,-28.54883 z"
           transform="translate(-11.38,-228)" />
        <rect
           style="fill:#ffffff;stroke:#000000;stroke-width:0.706252;stroke-miterlimit:4;stroke-dasharray:none;stop-color:#000000"
           id="rect1815"
           width="1.0952133"
           height="90.017998"
           x="36.535591"
           y="-165.24474" />
      </g>
      <path
         stroke="#000000"
         id="shape4-1"
         fill="#ffffff"
         d="m 156.42266,213.00062 h 4.49792 c 0.37041,0 0.66146,-0.29104 0.66146,-0.66146 0,-0.37041 -0.29105,-0.66145 -0.66146,-0.66145 h -4.49792 c -0.37041,0 -0.66146,0.29104 -0.66146,0.66145 0,0.37042 0.29105,0.66146 0.66146,0.66146 z"
         style="stroke-width:0.186862;stroke-miterlimit:4;stroke-dasharray:none" />
      <g
         id="g1714"
         transform="matrix(0.26458333,0,0,0.26458333,155.74104,124.74661)"
         style="stroke-width:0.706252;stroke-miterlimit:4;stroke-dasharray:none">
        <path
           id="rect896"
           style="fill:url(#linearGradient906);fill-opacity:1;stroke:#000000;stroke-width:0.706252;stroke-miterlimit:4;stroke-dasharray:none;stop-color:#000000"
           d="m -18.342268,350.51465 h 56.922985 v 5.85024 h -56.922985 z" />
        <path
           id="rect896-7"
           style="fill:url(#linearGradient906-5);fill-opacity:1;stroke:#000000;stroke-width:0.706252;stroke-miterlimit:4;stroke-dasharray:none;stop-color:#000000"
           d="m -29.212894,356.43134 h 78.968292 v 23.97497 h -78.968292 z" />
        <path
           id="path936"
           style="fill:#ffffff;stroke:#000000;stroke-width:0.706252;stroke-miterlimit:4;stroke-dasharray:none;stop-color:#000000"
           d="m -5.0421486,368.85587 a 8.2129097,8.2129097 0 0 1 -8.1444434,8.21262 8.2129097,8.2129097 0 0 1 -8.280234,-8.0757 8.2129097,8.2129097 0 0 1 8.006387,-8.34727 8.2129097,8.2129097 0 0 1 8.4137246,7.93653 l -8.2083436,0.27382 z" />
        <path
           id="path936-6"
           style="fill:#ffffff;stroke:#000000;stroke-width:0.706252;stroke-miterlimit:4;stroke-dasharray:none;stop-color:#000000"
           d="m 40.503429,368.60336 a 8.2129097,8.2129097 0 0 1 -8.144443,8.21263 8.2129097,8.2129097 0 0 1 -8.280234,-8.0757 8.2129097,8.2129097 0 0 1 8.006387,-8.34727 8.2129097,8.2129097 0 0 1 8.413725,7.93652 l -8.208344,0.27382 z" />
      </g>
      <path
         stroke="#000000"
         id="shape8"
         fill="none"
         d="m 146.27077,204.94281 h 24.20937 c 0,0.23813 -0.44979,9.81605 -7.62,12.43542 h -9.02229 c 0,0 -5.74146,-1.37583 -7.56708,-10.68917 l -0.025,-0.74083 z"
         sodipodi:nodetypes="ccccccc"
         style="stroke-width:0.186862;stroke-miterlimit:4;stroke-dasharray:none" />
      <path
         stroke="#000000"
         id="shape8-1"
         fill="none"
         d="m 189.73006,199.81894 h 24.20937 c 0,0.23813 -0.44979,9.81605 -7.62,12.43542 h -9.02229 c 0,0 -5.74146,-1.37583 -7.56708,-10.68917 l -0.025,-0.74083 z"
         sodipodi:nodetypes="ccccccc"
         style="stroke-width:0.186862;stroke-miterlimit:4;stroke-dasharray:none" />
      <text
         xml:space="preserve"
         style="font-style:normal;font-weight:normal;font-size:2.80294px;line-height:1.25;font-family:sans-serif;letter-spacing:0px;word-spacing:0px;fill:#000000;fill-opacity:1;stroke:none;stroke-width:0.0130941"
         x="167.0191"
         y="190.89798"
         id="text1853"><tspan
           sodipodi:role="line"
           id="tspan1851"
           x="167.0191"
           y="190.89798"
           style="font-style:normal;font-variant:normal;font-weight:normal;font-stretch:normal;font-size:3.73725px;font-family:cmr10;-inkscape-font-specification:'cmr10, Normal';font-variant-ligatures:normal;font-variant-caps:normal;font-variant-numeric:normal;font-variant-east-asian:normal;stroke-width:0.0130941">Dry Ice / Acetone</tspan></text>
      <circle
         id="path1857"
         style="fill:#000000;stroke:none;stroke-width:0.0130941"
         cx="185.77316"
         cy="192.51297"
         r="0.10511016" />
      <circle
         id="path1861"
         style="fill:#000000;stroke:none;stroke-width:0.0130941"
         cx="185.81551"
         cy="192.10405"
         r="0.10511016" />
      <path
         style="fill:none;stroke:#000000;stroke-width:0.219563;stroke-linecap:butt;stroke-linejoin:miter;stroke-miterlimit:3;stroke-dasharray:none;stroke-opacity:1;marker-end:url(#Arrow1Lend)"
         d="m 188.49369,192.16887 5.47209,6.82656"
         id="path1865" />
      <path
         style="fill:none;stroke:#000000;stroke-width:0.0926956;stroke-linecap:butt;stroke-linejoin:miter;stroke-miterlimit:4;stroke-dasharray:none;stroke-opacity:1;marker-start:url(#Arrow1Lstart)"
         d="m 210.5831,187.05095 12.70022,-3.6843"
         id="path1795" />
      <g
         inkscape:label=""
         transform="matrix(0.49511386,0,0,0.49511386,178.53436,143.56074)"
         id="g1906">
        <g
           id="g1300">
          <g
             style="fill:#000000;fill-opacity:1"
             id="g8252">
            <use
               xlink:href="#symbol880"
               x="91.925003"
               y="81.962997"
               id="use7852"
               width="100%"
               height="100%" />
          </g>
          <g
             style="fill:#000000;fill-opacity:1"
             id="g7910">
            <use
               xlink:href="#symbol5814"
               x="99.397003"
               y="83.457001"
               id="use6613"
               width="100%"
               height="100%" />
          </g>
        </g>
      </g>
    </g>
  </g>
</svg>
