<?xml version="1.0" encoding="UTF-8" standalone="no"?>
<svg
   xmlns:dc="http://purl.org/dc/elements/1.1/"
   xmlns:cc="http://creativecommons.org/ns#"
   xmlns:rdf="http://www.w3.org/1999/02/22-rdf-syntax-ns#"
   xmlns:svg="http://www.w3.org/2000/svg"
   xmlns="http://www.w3.org/2000/svg"
   xmlns:xlink="http://www.w3.org/1999/xlink"
   xmlns:sodipodi="http://sodipodi.sourceforge.net/DTD/sodipodi-0.dtd"
   xmlns:inkscape="http://www.inkscape.org/namespaces/inkscape"
   height="404"
   viewBox="0 0 99 404"
   width="99"
   version="1.1"
   id="svg47"
   sodipodi:docname="complex.svg"
   inkscape:version="1.0.1 (3bc2e813f5, 2020-09-07)">
  <metadata
     id="metadata51">
    <rdf:RDF>
      <cc:Work
         rdf:about="">
        <dc:format>image/svg+xml</dc:format>
        <dc:type
           rdf:resource="http://purl.org/dc/dcmitype/StillImage" />
        <dc:title />
      </cc:Work>
    </rdf:RDF>
  </metadata>
  <sodipodi:namedview
     pagecolor="#ffffff"
     bordercolor="#666666"
     borderopacity="1"
     objecttolerance="10"
     gridtolerance="10"
     guidetolerance="10"
     inkscape:pageopacity="0"
     inkscape:pageshadow="2"
     inkscape:window-width="2486"
     inkscape:window-height="1326"
     id="namedview49"
     showgrid="false"
     inkscape:zoom="4.977366"
     inkscape:cx="-38.519706"
     inkscape:cy="295.87095"
     inkscape:window-x="32"
     inkscape:window-y="72"
     inkscape:window-maximized="1"
     inkscape:current-layer="g30"
     inkscape:document-rotation="0" />
  <defs
     id="defs26">
    <linearGradient
       x2="0%"
       id="linearGradient1034"
       y1="0%"
       x1="0%"
       y2="100%">
      <stop
         stop-color="#a0ffff"
         offset="0"
         stop-opacity="0"
         id="stop1026" />
      <stop
         stop-color="#a0ffff"
         offset="0.73"
         stop-opacity="0"
         id="stop1028" />
      <stop
         stop-color="#a0ffff"
         offset="0.73000002"
         stop-opacity="0.55"
         id="stop1030" />
      <stop
         stop-color="#a0ffff"
         offset="1"
         stop-opacity="0.55"
         id="stop1032"
         style="stop-color:#dddddd;stop-opacity:0.98823529" />
    </linearGradient>
    <linearGradient
       inkscape:collect="always"
       id="linearGradient904">
      <stop
         style="stop-color:#ffffff;stop-opacity:1;"
         offset="0"
         id="stop900" />
      <stop
         style="stop-color:#ffffff;stop-opacity:0;"
         offset="1"
         id="stop902" />
    </linearGradient>
    <linearGradient
       x2="0%"
       id="lg1"
       y1="0%"
       x1="0%"
       y2="100%">
      <stop
         stop-color="#a0ffff"
         offset="0"
         stop-opacity="0"
         id="stop2" />
      <stop
         stop-color="#a0ffff"
         offset="0.73"
         stop-opacity="0"
         id="stop4" />
      <stop
         stop-color="#a0ffff"
         offset="0.73"
         stop-opacity="0.55"
         id="stop6" />
      <stop
         stop-color="#a0ffff"
         offset="1"
         stop-opacity="0.55"
         id="stop8"
         style="stop-color:#dddddd;stop-opacity:0.98823529" />
    </linearGradient>
    <linearGradient
       x2="0%"
       id="lg2"
       y1="0%"
       x1="0%"
       y2="100%">
      <stop
         stop-color="#fffaef"
         offset="0"
         id="stop11" />
      <stop
         stop-color="#f6cc6e"
         offset="1"
         id="stop13" />
    </linearGradient>
    <linearGradient
       x2="0%"
       id="lg3"
       y1="0%"
       x1="0%"
       y2="100%">
      <stop
         stop-color="#f4ba76"
         offset="0.24"
         stop-opacity="0.26"
         id="stop16" />
      <stop
         stop-color="#d89300"
         offset="1"
         id="stop18" />
    </linearGradient>
    <linearGradient
       x2="0%"
       id="lg4"
       y1="0%"
       x1="0%"
       y2="100%">
      <stop
         stop-color="#e89188"
         offset="0"
         stop-opacity="0.4"
         id="stop21" />
      <stop
         stop-color="#ce481c"
         offset="1"
         id="stop23" />
    </linearGradient>
    <linearGradient
       inkscape:collect="always"
       xlink:href="#linearGradient904"
       id="linearGradient906"
       x1="-20.02727"
       y1="357.20692"
       x2="36.567053"
       y2="357.20692"
       gradientUnits="userSpaceOnUse"
       gradientTransform="matrix(1.0058073,0,0,0.44809327,1.801306,193.37776)" />
    <linearGradient
       inkscape:collect="always"
       xlink:href="#linearGradient904"
       id="linearGradient906-5"
       x1="-20.027269"
       y1="357.20691"
       x2="36.567055"
       y2="357.20691"
       gradientUnits="userSpaceOnUse"
       gradientTransform="matrix(1.3953394,0,0,1.8363374,-1.2680592,-287.53358)" />
    <linearGradient
       inkscape:collect="always"
       xlink:href="#lg1"
       id="linearGradient977"
       x1="35.43"
       y1="-1.52"
       x2="36.00312"
       y2="115.18027"
       gradientUnits="userSpaceOnUse" />
  </defs>
  <g
     transform="translate(-456.62,-112)"
     id="g45">
    <g
       transform="translate(468,340)"
       id="g30"
       style="display:inline">
      <path
         id="shape1-6"
         style="display:inline;fill:#b3b3b3;fill-opacity:1"
         d="M 11.849609,313.45117 C 14.550992,329.72485 28.894384,342 49.380859,342 c 20.486368,0 34.827806,-12.27528 37.529297,-28.54883 z"
         transform="translate(-11.38,-228)" />
      <path
         stroke="#000000"
         id="shape2"
         fill="none"
         d="m 24.5,0 h 27 v 45.6 c 0,0 24.5,7.6 24.5,34.2 C 76,98.8 60.8,114 38,114 15.2,114 0,98.8 0,79.8 0,53.2 24.5,45.6 24.5,45.6 Z"
         style="display:inline" />
    </g>
    <g
       transform="translate(495,118)"
       id="g37"
       style="display:inline">
      <path
         stroke="#000000"
         id="shape4"
         transform="translate(0,-5)"
         fill="#ffffff"
         d="m 2.5,5 h 17 C 20.9,5 22,3.9 22,2.5 22,1.1 20.9,0 19.5,0 H 2.5 C 1.1,0 0,1.1 0,2.5 0,3.9 1.1,5 2.5,5 Z"
         style="display:none" />
      <path
         stroke="#000000"
         id="shape5"
         fill="#ffffff"
         d="m 0,0 h 16.7 v 30.1 l -5.8,6.7 v 8.3 184.1 l 3.3,5 v 10 H 2.5 v -10 l 3.4,-5 V 36.8 L 0,30.1 Z"
         transform="translate(2.64)"
         style="display:none" />
      <path
         stroke="#000000"
         id="shape6"
         transform="translate(0,31.9)"
         fill="none"
         d="M 0,11 C 0,11 0,0 11,0 22,0 22,11 22,11 v 10 c 13.2,0 13.2,0 13.2,17.6 h -6 C 29.2,27 29.2,27 22,27 v 162.9 c 0,0 0,11 -11,11 -11,0 -11,-11 -11,-11 v -10 c -7.2,0 -7.2,0 -7.2,11.6 h -6 c 0,-17.6 0,-17.6 13.2,-17.6 z"
         style="display:none" />
      <path
         stroke="#000000"
         id="shape7"
         transform="translate(3.33,36.78)"
         fill="#ffffff"
         d="m 5.1,0 v 8.7 c 0,0 -5.1,0 -5.1,8.8 0,8.7 5.1,8.7 5.1,8.7 C 5.1,35 0,35 0,43.7 0,52.5 5.1,52.5 5.1,52.5 5.1,61.2 0,61.2 0,70 c 0,8.7 5.1,8.7 5.1,8.7 0,8.8 -5.1,8.8 -5.1,17.5 0,8.7 5.1,8.7 5.1,8.7 0,8.8 -5.1,8.8 -5.1,17.5 0,8.8 5.1,8.8 5.1,8.8 0,8.7 -5.1,8.7 -5.1,17.5 0,8.7 5.1,8.7 5.1,8.7 0,8.8 -5.1,8.8 -5.1,17.5 0,8.8 5.1,8.8 5.1,8.8 v 8.7 h 5.2 v -8.7 c 0,0 5,0 5,-8.8 0,-8.7 -5,-8.7 -5,-8.7 0,-8.8 5,-8.8 5,-17.5 0,-8.8 -5,-8.8 -5,-8.8 0,-8.7 5,-8.7 5,-17.5 0,-8.7 -5,-8.7 -5,-8.7 0,-8.8 5,-8.8 5,-17.5 0,-8.7 -5,-8.7 -5,-8.7 0,-8.8 5,-8.8 5,-17.5 0,-8.8 -5,-8.8 -5,-8.8 0,-8.7 5,-8.7 5,-17.5 0,-8.7 -5,-8.7 -5,-8.7 0,-8.8 5,-8.8 5,-17.5 0,-8.8 -5,-8.8 -5,-8.8 V 0"
         style="display:none" />
      <path
         stroke="#000000"
         id="shape4-1"
         fill="#ffffff"
         d="M 2.5762035,333.55847 H 19.576203 c 1.4,0 2.5,-1.1 2.5,-2.5 0,-1.4 -1.1,-2.5 -2.5,-2.5 H 2.5762035 c -1.4,0 -2.49999902,1.1 -2.49999902,2.5 0,1.4 1.09999902,2.5 2.49999902,2.5 z"
         style="display:inline" />
      <rect
         style="display:inline;fill:url(#linearGradient906);fill-opacity:1;stroke:#000000;stroke-width:1;stroke-miterlimit:4;stroke-dasharray:none;stop-color:#000000"
         id="rect896"
         width="56.922985"
         height="5.850246"
         x="-18.342268"
         y="350.51465" />
      <rect
         style="display:inline;fill:url(#linearGradient906-5);fill-opacity:1;stroke:#000000;stroke-width:1;stroke-miterlimit:4;stroke-dasharray:none;stop-color:#000000"
         id="rect896-7"
         width="78.968292"
         height="23.974976"
         x="-29.212894"
         y="356.43134" />
      <path
         style="display:inline;fill:#ffffff;stroke:#000000;stroke-width:1;stroke-miterlimit:4;stroke-dasharray:none;stop-color:#000000"
         id="path936"
         sodipodi:type="arc"
         sodipodi:cx="-13.255058"
         sodipodi:cy="368.85587"
         sodipodi:rx="8.2129097"
         sodipodi:ry="8.2129097"
         sodipodi:start="0"
         sodipodi:end="6.2498391"
         sodipodi:arc-type="slice"
         d="m -5.0421486,368.85587 a 8.2129097,8.2129097 0 0 1 -8.1444434,8.21262 8.2129097,8.2129097 0 0 1 -8.280234,-8.0757 8.2129097,8.2129097 0 0 1 8.006387,-8.34727 8.2129097,8.2129097 0 0 1 8.4137246,7.93653 l -8.2083436,0.27382 z" />
      <path
         style="display:inline;fill:#ffffff;stroke:#000000;stroke-width:1;stroke-miterlimit:4;stroke-dasharray:none;stop-color:#000000"
         id="path936-6"
         sodipodi:type="arc"
         sodipodi:cx="32.29052"
         sodipodi:cy="368.60336"
         sodipodi:rx="8.2129097"
         sodipodi:ry="8.2129097"
         sodipodi:start="0"
         sodipodi:end="6.2498391"
         sodipodi:arc-type="slice"
         d="m 40.503429,368.60336 a 8.2129097,8.2129097 0 0 1 -8.144443,8.21263 8.2129097,8.2129097 0 0 1 -8.280234,-8.0757 8.2129097,8.2129097 0 0 1 8.006387,-8.34727 8.2129097,8.2129097 0 0 1 8.413725,7.93652 l -8.208344,0.27382 z" />
    </g>
    <path
       stroke="#000000"
       id="shape8"
       fill="none"
       d="m 461.07067,420.58904 h 91.5 c 0,0.9 -1.7,37.1 -28.8,47 h -34.1 c 0,0 -21.7,-5.2 -28.6,-40.4 l -0.0945,-2.8 z"
       sodipodi:nodetypes="ccccccc" />
    <g
       transform="translate(487,439)"
       id="g43"
       style="display:none">
      <path
         id="shape9"
         transform="translate(-0.05)"
         fill="url(#lg2)"
         d="M 7.7,76 C 7.7,74.6 -6.6,57.9 3.6,34.5 13.8,11.1 18.2,5.5 19.9,0.5 c 1.7,-5 14.2,29.8 15.9,34 1.7,4.3 6.8,27.3 -8.1,41.5 z" />
      <path
         id="shape10"
         transform="translate(4.72,18.98)"
         fill="url(#lg3)"
         d="M 5.7,57 C 5.7,55.9 -4.9,43.4 2.7,25.9 10.3,8.3 13.6,4.1 14.9,0.4 c 1.3,-3.8 10.7,22.3 11.9,25.5 1.3,3.2 5.1,20.4 -6.1,31.1 z" />
      <path
         id="shape11"
         transform="translate(9.4,37.14)"
         fill="url(#lg4)"
         d="M 3.9,38.3 C 3.9,37.5 -3.3,29.1 1.8,17.4 6.9,5.6 9.1,2.7 10,0.2 c 0.9,-2.4 7.2,15 8,17.2 0.9,2.1 3.4,13.7 -4.1,20.9 z" />
    </g>
  </g>
</svg>
