<?xml version="1.0" encoding="UTF-8" standalone="no"?>
<svg
   xmlns:dc="http://purl.org/dc/elements/1.1/"
   xmlns:cc="http://creativecommons.org/ns#"
   xmlns:rdf="http://www.w3.org/1999/02/22-rdf-syntax-ns#"
   xmlns:svg="http://www.w3.org/2000/svg"
   xmlns="http://www.w3.org/2000/svg"
   xmlns:xlink="http://www.w3.org/1999/xlink"
   xmlns:sodipodi="http://sodipodi.sourceforge.net/DTD/sodipodi-0.dtd"
   xmlns:inkscape="http://www.inkscape.org/namespaces/inkscape"
   height="404"
   viewBox="0 0 99 404"
   width="99"
   version="1.1"
   id="svg47"
   sodipodi:docname="complex.svg"
   inkscape:version="1.0.1 (3bc2e813f5, 2020-09-07)">
  <metadata
     id="metadata51">
    <rdf:RDF>
      <cc:Work
         rdf:about="">
        <dc:format>image/svg+xml</dc:format>
        <dc:type
           rdf:resource="http://purl.org/dc/dcmitype/StillImage" />
        <dc:title></dc:title>
      </cc:Work>
    </rdf:RDF>
  </metadata>
  <sodipodi:namedview
     pagecolor="#ffffff"
     bordercolor="#666666"
     borderopacity="1"
     objecttolerance="10"
     gridtolerance="10"
     guidetolerance="10"
     inkscape:pageopacity="0"
     inkscape:pageshadow="2"
     inkscape:window-width="2486"
     inkscape:window-height="1326"
     id="namedview49"
     showgrid="false"
     inkscape:zoom="2.0253021"
     inkscape:cx="-103.15785"
     inkscape:cy="274.50494"
     inkscape:window-x="32"
     inkscape:window-y="72"
     inkscape:window-maximized="1"
     inkscape:current-layer="g30"
     inkscape:document-rotation="0" />
  <defs
     id="defs26">
    <marker
       style="overflow:visible;"
       id="Arrow1Lend"
       refX="0.0"
       refY="0.0"
       orient="auto"
       inkscape:stockid="Arrow1Lend"
       inkscape:isstock="true">
      <path
         transform="scale(0.8) rotate(180) translate(12.5,0)"
         style="fill-rule:evenodd;stroke:#000000;stroke-width:1pt;stroke-opacity:1;fill:#000000;fill-opacity:1"
         d="M 0.0,0.0 L 5.0,-5.0 L -12.5,0.0 L 5.0,5.0 L 0.0,0.0 z "
         id="path986" />
    </marker>
    <linearGradient
       x2="0%"
       id="linearGradient1034"
       y1="0%"
       x1="0%"
       y2="100%">
      <stop
         stop-color="#a0ffff"
         offset="0"
         stop-opacity="0"
         id="stop1026" />
      <stop
         stop-color="#a0ffff"
         offset="0.73"
         stop-opacity="0"
         id="stop1028" />
      <stop
         stop-color="#a0ffff"
         offset="0.73000002"
         stop-opacity="0.55"
         id="stop1030" />
      <stop
         stop-color="#a0ffff"
         offset="1"
         stop-opacity="0.55"
         id="stop1032"
         style="stop-color:#dddddd;stop-opacity:0.98823529" />
    </linearGradient>
    <linearGradient
       inkscape:collect="always"
       id="linearGradient904">
      <stop
         style="stop-color:#ffffff;stop-opacity:1;"
         offset="0"
         id="stop900" />
      <stop
         style="stop-color:#ffffff;stop-opacity:0;"
         offset="1"
         id="stop902" />
    </linearGradient>
    <linearGradient
       x2="0%"
       id="lg1"
       y1="0%"
       x1="0%"
       y2="100%">
      <stop
         stop-color="#a0ffff"
         offset="0"
         stop-opacity="0"
         id="stop2" />
      <stop
         stop-color="#a0ffff"
         offset="0.73"
         stop-opacity="0"
         id="stop4" />
      <stop
         stop-color="#a0ffff"
         offset="0.73"
         stop-opacity="0.55"
         id="stop6" />
      <stop
         stop-color="#a0ffff"
         offset="1"
         stop-opacity="0.55"
         id="stop8"
         style="stop-color:#dddddd;stop-opacity:0.98823529" />
    </linearGradient>
    <linearGradient
       x2="0%"
       id="lg2"
       y1="0%"
       x1="0%"
       y2="100%">
      <stop
         stop-color="#fffaef"
         offset="0"
         id="stop11" />
      <stop
         stop-color="#f6cc6e"
         offset="1"
         id="stop13" />
    </linearGradient>
    <linearGradient
       x2="0%"
       id="lg3"
       y1="0%"
       x1="0%"
       y2="100%">
      <stop
         stop-color="#f4ba76"
         offset="0.24"
         stop-opacity="0.26"
         id="stop16" />
      <stop
         stop-color="#d89300"
         offset="1"
         id="stop18" />
    </linearGradient>
    <linearGradient
       x2="0%"
       id="lg4"
       y1="0%"
       x1="0%"
       y2="100%">
      <stop
         stop-color="#e89188"
         offset="0"
         stop-opacity="0.4"
         id="stop21" />
      <stop
         stop-color="#ce481c"
         offset="1"
         id="stop23" />
    </linearGradient>
    <linearGradient
       inkscape:collect="always"
       xlink:href="#linearGradient904"
       id="linearGradient906"
       x1="-20.02727"
       y1="357.20692"
       x2="36.567053"
       y2="357.20692"
       gradientUnits="userSpaceOnUse"
       gradientTransform="matrix(1.0058073,0,0,0.44809327,1.801306,193.37776)" />
    <linearGradient
       inkscape:collect="always"
       xlink:href="#linearGradient904"
       id="linearGradient906-5"
       x1="-20.027269"
       y1="357.20691"
       x2="36.567055"
       y2="357.20691"
       gradientUnits="userSpaceOnUse"
       gradientTransform="matrix(1.3953394,0,0,1.8363374,-1.2680592,-287.53358)" />
    <linearGradient
       inkscape:collect="always"
       xlink:href="#lg1"
       id="linearGradient977"
       x1="35.43"
       y1="-1.52"
       x2="36.00312"
       y2="115.18027"
       gradientUnits="userSpaceOnUse" />
    <g
       id="g847">
      <symbol
         overflow="visible"
         id="symbol6232">
        <path
           style="stroke:none;"
           d=""
           id="path3895" />
      </symbol>
      <symbol
         overflow="visible"
         id="symbol9316">
        <path
           style="stroke:none;"
           d="M 2.3125 -6.671875 C 2.21875 -6.796875 2.21875 -6.8125 2.03125 -6.8125 L 0.328125 -6.8125 L 0.328125 -6.5 L 0.625 -6.5 C 0.765625 -6.5 0.96875 -6.484375 1.109375 -6.484375 C 1.34375 -6.453125 1.359375 -6.4375 1.359375 -6.25 L 1.359375 -1.046875 C 1.359375 -0.78125 1.359375 -0.3125 0.328125 -0.3125 L 0.328125 0 C 0.671875 -0.015625 1.171875 -0.03125 1.5 -0.03125 C 1.828125 -0.03125 2.3125 -0.015625 2.65625 0 L 2.65625 -0.3125 C 1.640625 -0.3125 1.640625 -0.78125 1.640625 -1.046875 L 1.640625 -6.234375 C 1.6875 -6.1875 1.6875 -6.171875 1.734375 -6.109375 L 5.796875 -0.125 C 5.890625 -0.015625 5.90625 0 5.96875 0 C 6.109375 0 6.109375 -0.0625 6.109375 -0.265625 L 6.109375 -5.765625 C 6.109375 -6.03125 6.109375 -6.5 7.140625 -6.5 L 7.140625 -6.8125 C 6.78125 -6.796875 6.296875 -6.78125 5.96875 -6.78125 C 5.640625 -6.78125 5.15625 -6.796875 4.8125 -6.8125 L 4.8125 -6.5 C 5.828125 -6.5 5.828125 -6.03125 5.828125 -5.765625 L 5.828125 -1.5 Z M 2.3125 -6.671875 "
           id="path8823" />
      </symbol>
      <symbol
         overflow="visible"
         id="symbol3484">
        <path
           style="stroke:none;"
           d=""
           id="path9020" />
      </symbol>
      <symbol
         overflow="visible"
         id="symbol3671">
        <path
           style="stroke:none;"
           d="M 3.515625 -1.265625 L 3.28125 -1.265625 C 3.265625 -1.109375 3.1875 -0.703125 3.09375 -0.640625 C 3.046875 -0.59375 2.515625 -0.59375 2.40625 -0.59375 L 1.125 -0.59375 C 1.859375 -1.234375 2.109375 -1.4375 2.515625 -1.765625 C 3.03125 -2.171875 3.515625 -2.609375 3.515625 -3.265625 C 3.515625 -4.109375 2.78125 -4.625 1.890625 -4.625 C 1.03125 -4.625 0.4375 -4.015625 0.4375 -3.375 C 0.4375 -3.03125 0.734375 -2.984375 0.8125 -2.984375 C 0.96875 -2.984375 1.171875 -3.109375 1.171875 -3.359375 C 1.171875 -3.484375 1.125 -3.734375 0.765625 -3.734375 C 0.984375 -4.21875 1.453125 -4.375 1.78125 -4.375 C 2.484375 -4.375 2.84375 -3.828125 2.84375 -3.265625 C 2.84375 -2.65625 2.40625 -2.1875 2.1875 -1.9375 L 0.515625 -0.265625 C 0.4375 -0.203125 0.4375 -0.1875 0.4375 0 L 3.3125 0 Z M 3.515625 -1.265625 "
           id="path8776" />
      </symbol>
    </g>
    <g
       id="g8047">
      <symbol
         overflow="visible"
         id="symbol7252">
        <path
           style="stroke:none;"
           d=""
           id="path8824" />
      </symbol>
      <symbol
         overflow="visible"
         id="symbol9721">
        <path
           style="stroke:none;"
           d="M 2.3125 -6.671875 C 2.21875 -6.796875 2.21875 -6.8125 2.03125 -6.8125 L 0.328125 -6.8125 L 0.328125 -6.5 L 0.625 -6.5 C 0.765625 -6.5 0.96875 -6.484375 1.109375 -6.484375 C 1.34375 -6.453125 1.359375 -6.4375 1.359375 -6.25 L 1.359375 -1.046875 C 1.359375 -0.78125 1.359375 -0.3125 0.328125 -0.3125 L 0.328125 0 C 0.671875 -0.015625 1.171875 -0.03125 1.5 -0.03125 C 1.828125 -0.03125 2.3125 -0.015625 2.65625 0 L 2.65625 -0.3125 C 1.640625 -0.3125 1.640625 -0.78125 1.640625 -1.046875 L 1.640625 -6.234375 C 1.6875 -6.1875 1.6875 -6.171875 1.734375 -6.109375 L 5.796875 -0.125 C 5.890625 -0.015625 5.90625 0 5.96875 0 C 6.109375 0 6.109375 -0.0625 6.109375 -0.265625 L 6.109375 -5.765625 C 6.109375 -6.03125 6.109375 -6.5 7.140625 -6.5 L 7.140625 -6.8125 C 6.78125 -6.796875 6.296875 -6.78125 5.96875 -6.78125 C 5.640625 -6.78125 5.15625 -6.796875 4.8125 -6.8125 L 4.8125 -6.5 C 5.828125 -6.5 5.828125 -6.03125 5.828125 -5.765625 L 5.828125 -1.5 Z M 2.3125 -6.671875 "
           id="path6062" />
      </symbol>
      <symbol
         overflow="visible"
         id="symbol5971">
        <path
           style="stroke:none;"
           d=""
           id="path974" />
      </symbol>
      <symbol
         overflow="visible"
         id="symbol9603">
        <path
           style="stroke:none;"
           d="M 3.515625 -1.265625 L 3.28125 -1.265625 C 3.265625 -1.109375 3.1875 -0.703125 3.09375 -0.640625 C 3.046875 -0.59375 2.515625 -0.59375 2.40625 -0.59375 L 1.125 -0.59375 C 1.859375 -1.234375 2.109375 -1.4375 2.515625 -1.765625 C 3.03125 -2.171875 3.515625 -2.609375 3.515625 -3.265625 C 3.515625 -4.109375 2.78125 -4.625 1.890625 -4.625 C 1.03125 -4.625 0.4375 -4.015625 0.4375 -3.375 C 0.4375 -3.03125 0.734375 -2.984375 0.8125 -2.984375 C 0.96875 -2.984375 1.171875 -3.109375 1.171875 -3.359375 C 1.171875 -3.484375 1.125 -3.734375 0.765625 -3.734375 C 0.984375 -4.21875 1.453125 -4.375 1.78125 -4.375 C 2.484375 -4.375 2.84375 -3.828125 2.84375 -3.265625 C 2.84375 -2.65625 2.40625 -2.1875 2.1875 -1.9375 L 0.515625 -0.265625 C 0.4375 -0.203125 0.4375 -0.1875 0.4375 0 L 3.3125 0 Z M 3.515625 -1.265625 "
           id="path3127" />
      </symbol>
    </g>
    <g
       id="g8842">
      <symbol
         overflow="visible"
         id="symbol7750">
        <path
           style="stroke:none;"
           d=""
           id="path5257" />
      </symbol>
      <symbol
         overflow="visible"
         id="symbol8723">
        <path
           style="stroke:none;"
           d="M 2.3125 -6.671875 C 2.21875 -6.796875 2.21875 -6.8125 2.03125 -6.8125 L 0.328125 -6.8125 L 0.328125 -6.5 L 0.625 -6.5 C 0.765625 -6.5 0.96875 -6.484375 1.109375 -6.484375 C 1.34375 -6.453125 1.359375 -6.4375 1.359375 -6.25 L 1.359375 -1.046875 C 1.359375 -0.78125 1.359375 -0.3125 0.328125 -0.3125 L 0.328125 0 C 0.671875 -0.015625 1.171875 -0.03125 1.5 -0.03125 C 1.828125 -0.03125 2.3125 -0.015625 2.65625 0 L 2.65625 -0.3125 C 1.640625 -0.3125 1.640625 -0.78125 1.640625 -1.046875 L 1.640625 -6.234375 C 1.6875 -6.1875 1.6875 -6.171875 1.734375 -6.109375 L 5.796875 -0.125 C 5.890625 -0.015625 5.90625 0 5.96875 0 C 6.109375 0 6.109375 -0.0625 6.109375 -0.265625 L 6.109375 -5.765625 C 6.109375 -6.03125 6.109375 -6.5 7.140625 -6.5 L 7.140625 -6.8125 C 6.78125 -6.796875 6.296875 -6.78125 5.96875 -6.78125 C 5.640625 -6.78125 5.15625 -6.796875 4.8125 -6.8125 L 4.8125 -6.5 C 5.828125 -6.5 5.828125 -6.03125 5.828125 -5.765625 L 5.828125 -1.5 Z M 2.3125 -6.671875 "
           id="path4076" />
      </symbol>
      <symbol
         overflow="visible"
         id="symbol1468">
        <path
           style="stroke:none;"
           d=""
           id="path8835" />
      </symbol>
      <symbol
         overflow="visible"
         id="symbol4016">
        <path
           style="stroke:none;"
           d="M 3.515625 -1.265625 L 3.28125 -1.265625 C 3.265625 -1.109375 3.1875 -0.703125 3.09375 -0.640625 C 3.046875 -0.59375 2.515625 -0.59375 2.40625 -0.59375 L 1.125 -0.59375 C 1.859375 -1.234375 2.109375 -1.4375 2.515625 -1.765625 C 3.03125 -2.171875 3.515625 -2.609375 3.515625 -3.265625 C 3.515625 -4.109375 2.78125 -4.625 1.890625 -4.625 C 1.03125 -4.625 0.4375 -4.015625 0.4375 -3.375 C 0.4375 -3.03125 0.734375 -2.984375 0.8125 -2.984375 C 0.96875 -2.984375 1.171875 -3.109375 1.171875 -3.359375 C 1.171875 -3.484375 1.125 -3.734375 0.765625 -3.734375 C 0.984375 -4.21875 1.453125 -4.375 1.78125 -4.375 C 2.484375 -4.375 2.84375 -3.828125 2.84375 -3.265625 C 2.84375 -2.65625 2.40625 -2.1875 2.1875 -1.9375 L 0.515625 -0.265625 C 0.4375 -0.203125 0.4375 -0.1875 0.4375 0 L 3.3125 0 Z M 3.515625 -1.265625 "
           id="path7519" />
      </symbol>
    </g>
  </defs>
  <g
     transform="translate(-456.62,-112)"
     id="g45">
    <g
       transform="translate(468,340)"
       id="g30"
       style="display:inline">
      <path
         id="shape1-6"
         style="display:inline;fill:#b3b3b3;fill-opacity:1"
         d="M 11.849609,313.45117 C 14.550992,329.72485 28.894384,342 49.380859,342 c 20.486368,0 34.827806,-12.27528 37.529297,-28.54883 z"
         transform="translate(-11.38,-228)" />
      <path
         stroke="#000000"
         id="shape2"
         fill="none"
         d="m 24.5,0 h 27 v 45.6 c 0,0 24.5,7.6 24.5,34.2 C 76,98.8 60.8,114 38,114 15.2,114 0,98.8 0,79.8 0,53.2 24.5,45.6 24.5,45.6 Z"
         style="display:inline" />
      <path
         style="fill:none;stroke:#000000;stroke-width:0.839435;stroke-linecap:butt;stroke-linejoin:miter;stroke-miterlimit:4;stroke-dasharray:none;stroke-opacity:1;marker-end:url(#Arrow1Lend)"
         d="m 36.91277,-285.9498 v 51.45411"
         id="path981" />
      <text
         xml:space="preserve"
         style="font-style:normal;font-weight:normal;font-size:40px;line-height:1.25;font-family:sans-serif;letter-spacing:0px;word-spacing:0px;fill:#000000;fill-opacity:1;stroke:none"
         x="21.930502"
         y="-304.24255"
         id="text1339"><tspan
           sodipodi:role="line"
           id="tspan1337"
           x="21.930502"
           y="-304.24255" /></text>
      <g
         inkscape:label=""
         transform="matrix(3.6551018,0,0,3.6551018,-316.16739,-595.24974)"
         id="g1603">
        <g
           id="g2042">
          <g
             style="fill:#000000;fill-opacity:1"
             id="g5154">
            <use
               xlink:href="#symbol8723"
               x="91.925003"
               y="81.962997"
               id="use7489"
               width="100%"
               height="100%" />
          </g>
          <g
             style="fill:#000000;fill-opacity:1"
             id="g905">
            <use
               xlink:href="#symbol4016"
               x="99.397003"
               y="83.457001"
               id="use7372"
               width="100%"
               height="100%" />
          </g>
        </g>
      </g>
      <path
         id="rect1638"
         style="fill:#ffffff;stroke:#000000;stroke-width:1.19433;stroke-miterlimit:4;stroke-dasharray:none;stop-color:#000000"
         d="m -39.837891,178.48438 -6.628906,4.88085 11.435547,15.5293 -8.896484,6.60156 49.068359,66.1211 21.5,-15.95703 -49.070313,-66.11914 -5.99414,4.44921 z m 60.181641,82.12304 -6.628906,4.88086 11.527344,15.6543 6.628906,-4.87891 z"
         transform="translate(-11.38,-228)" />
      <path
         style="fill:none;stroke:#000000;stroke-width:1px;stroke-linecap:butt;stroke-linejoin:miter;stroke-opacity:1"
         d="m 7.893282,45.81016 -28.03539,1.56561 -47.100136,-64.18237 11.904726,-23.44863"
         id="path1659" />
    </g>
    <g
       transform="translate(495,118)"
       id="g37">
      <path
         stroke="#000000"
         id="shape4"
         transform="translate(0,-5)"
         fill="#ffffff"
         d="m 2.5,5 h 17 C 20.9,5 22,3.9 22,2.5 22,1.1 20.9,0 19.5,0 H 2.5 C 1.1,0 0,1.1 0,2.5 0,3.9 1.1,5 2.5,5 Z" />
      <path
         stroke="#000000"
         id="shape5"
         fill="#ffffff"
         d="m 0,0 h 16.7 v 30.1 l -5.8,6.7 v 8.3 184.1 l 3.3,5 v 10 H 2.5 v -10 l 3.4,-5 V 36.8 L 0,30.1 Z"
         transform="translate(2.64)" />
      <path
         stroke="#000000"
         id="shape6"
         transform="translate(0,31.9)"
         fill="none"
         d="M 0,11 C 0,11 0,0 11,0 22,0 22,11 22,11 v 10 c 13.2,0 13.2,0 13.2,17.6 h -6 C 29.2,27 29.2,27 22,27 v 162.9 c 0,0 0,11 -11,11 -11,0 -11,-11 -11,-11 v -10 c -7.2,0 -7.2,0 -7.2,11.6 h -6 c 0,-17.6 0,-17.6 13.2,-17.6 z" />
      <path
         stroke="#000000"
         id="shape7"
         transform="translate(3.33,36.78)"
         fill="#ffffff"
         d="m 5.1,0 v 8.7 c 0,0 -5.1,0 -5.1,8.8 0,8.7 5.1,8.7 5.1,8.7 C 5.1,35 0,35 0,43.7 0,52.5 5.1,52.5 5.1,52.5 5.1,61.2 0,61.2 0,70 c 0,8.7 5.1,8.7 5.1,8.7 0,8.8 -5.1,8.8 -5.1,17.5 0,8.7 5.1,8.7 5.1,8.7 0,8.8 -5.1,8.8 -5.1,17.5 0,8.8 5.1,8.8 5.1,8.8 0,8.7 -5.1,8.7 -5.1,17.5 0,8.7 5.1,8.7 5.1,8.7 0,8.8 -5.1,8.8 -5.1,17.5 0,8.8 5.1,8.8 5.1,8.8 v 8.7 h 5.2 v -8.7 c 0,0 5,0 5,-8.8 0,-8.7 -5,-8.7 -5,-8.7 0,-8.8 5,-8.8 5,-17.5 0,-8.8 -5,-8.8 -5,-8.8 0,-8.7 5,-8.7 5,-17.5 0,-8.7 -5,-8.7 -5,-8.7 0,-8.8 5,-8.8 5,-17.5 0,-8.7 -5,-8.7 -5,-8.7 0,-8.8 5,-8.8 5,-17.5 0,-8.8 -5,-8.8 -5,-8.8 0,-8.7 5,-8.7 5,-17.5 0,-8.7 -5,-8.7 -5,-8.7 0,-8.8 5,-8.8 5,-17.5 0,-8.8 -5,-8.8 -5,-8.8 V 0" />
      <path
         stroke="#000000"
         id="shape4-1"
         fill="#ffffff"
         d="M 2.5762035,333.55847 H 19.576203 c 1.4,0 2.5,-1.1 2.5,-2.5 0,-1.4 -1.1,-2.5 -2.5,-2.5 H 2.5762035 c -1.4,0 -2.49999902,1.1 -2.49999902,2.5 0,1.4 1.09999902,2.5 2.49999902,2.5 z" />
      <rect
         style="fill:url(#linearGradient906);fill-opacity:1;stroke:#000000;stroke-width:1;stroke-miterlimit:4;stroke-dasharray:none;stop-color:#000000"
         id="rect896"
         width="56.922985"
         height="5.850246"
         x="-18.342268"
         y="350.51465" />
      <rect
         style="fill:url(#linearGradient906-5);fill-opacity:1;stroke:#000000;stroke-width:1;stroke-miterlimit:4;stroke-dasharray:none;stop-color:#000000"
         id="rect896-7"
         width="78.968292"
         height="23.974976"
         x="-29.212894"
         y="356.43134" />
      <path
         style="fill:#ffffff;stroke:#000000;stroke-width:1;stroke-miterlimit:4;stroke-dasharray:none;stop-color:#000000"
         id="path936"
         sodipodi:type="arc"
         sodipodi:cx="-13.255058"
         sodipodi:cy="368.85587"
         sodipodi:rx="8.2129097"
         sodipodi:ry="8.2129097"
         sodipodi:start="0"
         sodipodi:end="6.2498391"
         sodipodi:arc-type="slice"
         d="m -5.0421486,368.85587 a 8.2129097,8.2129097 0 0 1 -8.1444434,8.21262 8.2129097,8.2129097 0 0 1 -8.280234,-8.0757 8.2129097,8.2129097 0 0 1 8.006387,-8.34727 8.2129097,8.2129097 0 0 1 8.4137246,7.93653 l -8.2083436,0.27382 z" />
      <path
         style="fill:#ffffff;stroke:#000000;stroke-width:1;stroke-miterlimit:4;stroke-dasharray:none;stop-color:#000000"
         id="path936-6"
         sodipodi:type="arc"
         sodipodi:cx="32.29052"
         sodipodi:cy="368.60336"
         sodipodi:rx="8.2129097"
         sodipodi:ry="8.2129097"
         sodipodi:start="0"
         sodipodi:end="6.2498391"
         sodipodi:arc-type="slice"
         d="m 40.503429,368.60336 a 8.2129097,8.2129097 0 0 1 -8.144443,8.21263 8.2129097,8.2129097 0 0 1 -8.280234,-8.0757 8.2129097,8.2129097 0 0 1 8.006387,-8.34727 8.2129097,8.2129097 0 0 1 8.413725,7.93652 l -8.208344,0.27382 z" />
    </g>
    <path
       stroke="#000000"
       id="shape8"
       fill="none"
       d="m 461.07067,420.58904 h 91.5 c 0,0.9 -1.7,37.1 -28.8,47 h -34.1 c 0,0 -21.7,-5.2 -28.6,-40.4 l -0.0945,-2.8 z"
       sodipodi:nodetypes="ccccccc" />
    <g
       transform="translate(487,439)"
       id="g43"
       style="display:none">
      <path
         id="shape9"
         transform="translate(-0.05)"
         fill="url(#lg2)"
         d="M 7.7,76 C 7.7,74.6 -6.6,57.9 3.6,34.5 13.8,11.1 18.2,5.5 19.9,0.5 c 1.7,-5 14.2,29.8 15.9,34 1.7,4.3 6.8,27.3 -8.1,41.5 z" />
      <path
         id="shape10"
         transform="translate(4.72,18.98)"
         fill="url(#lg3)"
         d="M 5.7,57 C 5.7,55.9 -4.9,43.4 2.7,25.9 10.3,8.3 13.6,4.1 14.9,0.4 c 1.3,-3.8 10.7,22.3 11.9,25.5 1.3,3.2 5.1,20.4 -6.1,31.1 z" />
      <path
         id="shape11"
         transform="translate(9.4,37.14)"
         fill="url(#lg4)"
         d="M 3.9,38.3 C 3.9,37.5 -3.3,29.1 1.8,17.4 6.9,5.6 9.1,2.7 10,0.2 c 0.9,-2.4 7.2,15 8,17.2 0.9,2.1 3.4,13.7 -4.1,20.9 z" />
    </g>
  </g>
</svg>
